solid OpenSCAD_Model
  facet normal -0 0.669133 0.743143
    outer loop
      vertex -1.5 -6.49503 6.91036
      vertex 5.5 -8.21175 8.45611
      vertex 5.5 -6.49503 6.91036
    endloop
  endfacet
  facet normal 0 0.669133 0.743143
    outer loop
      vertex 5.5 -8.21175 8.45611
      vertex -1.5 -6.49503 6.91036
      vertex -1.5 -8.21175 8.45611
    endloop
  endfacet
  facet normal 0 0.913544 0.40674
    outer loop
      vertex 5.5 -9.56958 10.325
      vertex -1.5 -10.5092 12.4354
      vertex 5.5 -10.5092 12.4354
    endloop
  endfacet
  facet normal 0 0.913544 0.40674
    outer loop
      vertex -1.5 -10.5092 12.4354
      vertex 5.5 -9.56958 10.325
      vertex -1.5 -9.56958 10.325
    endloop
  endfacet
  facet normal 0 -0.309015 0.951057
    outer loop
      vertex -1.5 4.49444 5.75532
      vertex 5.5 2.29742 5.04147
      vertex 5.5 4.49444 5.75532
    endloop
  endfacet
  facet normal 0 -0.309015 0.951057
    outer loop
      vertex 5.5 2.29742 5.04147
      vertex -1.5 4.49444 5.75532
      vertex -1.5 2.29742 5.04147
    endloop
  endfacet
  facet normal 0 -0.809017 0.587786
    outer loop
      vertex -1.5 8.21175 8.45611
      vertex 5.5 9.56958 10.325
      vertex -1.5 9.56958 10.325
    endloop
  endfacet
  facet normal 0 -0.809017 0.587786
    outer loop
      vertex 5.5 9.56958 10.325
      vertex -1.5 8.21175 8.45611
      vertex 5.5 8.21175 8.45611
    endloop
  endfacet
  facet normal 0 -0.669121 -0.743154
    outer loop
      vertex -1.5 6.49503 24.7896
      vertex 5.5 8.21175 23.2439
      vertex 5.5 6.49503 24.7896
    endloop
  endfacet
  facet normal -0 -0.669121 -0.743154
    outer loop
      vertex 5.5 8.21175 23.2439
      vertex -1.5 6.49503 24.7896
      vertex -1.5 8.21175 23.2439
    endloop
  endfacet
  facet normal -0 0.104529 0.994522
    outer loop
      vertex -1.5 0 4.8
      vertex 5.5 -2.29742 5.04147
      vertex 5.5 0 4.8
    endloop
  endfacet
  facet normal 0 0.104529 0.994522
    outer loop
      vertex 5.5 -2.29742 5.04147
      vertex -1.5 0 4.8
      vertex -1.5 -2.29742 5.04147
    endloop
  endfacet
  facet normal -0 0.5 0.866026
    outer loop
      vertex -1.5 -4.49444 5.75532
      vertex 5.5 -6.49503 6.91036
      vertex 5.5 -4.49444 5.75532
    endloop
  endfacet
  facet normal 0 0.5 0.866026
    outer loop
      vertex 5.5 -6.49503 6.91036
      vertex -1.5 -4.49444 5.75532
      vertex -1.5 -6.49503 6.91036
    endloop
  endfacet
  facet normal 0 -0.5 0.866026
    outer loop
      vertex -1.5 6.49503 6.91036
      vertex 5.5 4.49444 5.75532
      vertex 5.5 6.49503 6.91036
    endloop
  endfacet
  facet normal 0 -0.5 0.866026
    outer loop
      vertex 5.5 4.49444 5.75532
      vertex -1.5 6.49503 6.91036
      vertex -1.5 4.49444 5.75532
    endloop
  endfacet
  facet normal 0 -0.809018 -0.587784
    outer loop
      vertex -1.5 9.56958 21.375
      vertex 5.5 8.21175 23.2439
      vertex -1.5 8.21175 23.2439
    endloop
  endfacet
  facet normal 0 -0.809018 -0.587784
    outer loop
      vertex 5.5 8.21175 23.2439
      vertex -1.5 9.56958 21.375
      vertex 5.5 9.56958 21.375
    endloop
  endfacet
  facet normal 0 -0.669133 0.743143
    outer loop
      vertex -1.5 8.21175 8.45611
      vertex 5.5 6.49503 6.91036
      vertex 5.5 8.21175 8.45611
    endloop
  endfacet
  facet normal 0 -0.669133 0.743143
    outer loop
      vertex 5.5 6.49503 6.91036
      vertex -1.5 8.21175 8.45611
      vertex -1.5 6.49503 6.91036
    endloop
  endfacet
  facet normal 0 -0.978147 -0.207915
    outer loop
      vertex -1.5 10.9895 17.005
      vertex 5.5 10.5092 19.2646
      vertex -1.5 10.5092 19.2646
    endloop
  endfacet
  facet normal 0 -0.978147 -0.207915
    outer loop
      vertex 5.5 10.5092 19.2646
      vertex -1.5 10.9895 17.005
      vertex 5.5 10.9895 17.005
    endloop
  endfacet
  facet normal 0 -0.104529 0.994522
    outer loop
      vertex -1.5 2.29742 5.04147
      vertex 5.5 0 4.8
      vertex 5.5 2.29742 5.04147
    endloop
  endfacet
  facet normal 0 -0.104529 0.994522
    outer loop
      vertex 5.5 0 4.8
      vertex -1.5 2.29742 5.04147
      vertex -1.5 0 4.8
    endloop
  endfacet
  facet normal 0 0.669121 -0.743154
    outer loop
      vertex -1.5 -8.21175 23.2439
      vertex 5.5 -6.49503 24.7896
      vertex 5.5 -8.21175 23.2439
    endloop
  endfacet
  facet normal 0 0.669121 -0.743154
    outer loop
      vertex 5.5 -6.49503 24.7896
      vertex -1.5 -8.21175 23.2439
      vertex -1.5 -6.49503 24.7896
    endloop
  endfacet
  facet normal 0 0.104542 -0.99452
    outer loop
      vertex -1.5 -2.29742 26.6585
      vertex 5.5 0 26.9
      vertex 5.5 -2.29742 26.6585
    endloop
  endfacet
  facet normal 0 0.104542 -0.99452
    outer loop
      vertex 5.5 0 26.9
      vertex -1.5 -2.29742 26.6585
      vertex -1.5 0 26.9
    endloop
  endfacet
  facet normal 0 -0.913544 -0.40674
    outer loop
      vertex -1.5 10.5092 19.2646
      vertex 5.5 9.56958 21.375
      vertex -1.5 9.56958 21.375
    endloop
  endfacet
  facet normal 0 -0.913544 -0.40674
    outer loop
      vertex 5.5 9.56958 21.375
      vertex -1.5 10.5092 19.2646
      vertex 5.5 10.5092 19.2646
    endloop
  endfacet
  facet normal 0 0.978147 0.207915
    outer loop
      vertex 5.5 -10.5092 12.4354
      vertex -1.5 -10.9895 14.695
      vertex 5.5 -10.9895 14.695
    endloop
  endfacet
  facet normal 0 0.978147 0.207915
    outer loop
      vertex -1.5 -10.9895 14.695
      vertex 5.5 -10.5092 12.4354
      vertex -1.5 -10.5092 12.4354
    endloop
  endfacet
  facet normal 1 0 0
    outer loop
      vertex -1.5 5.44106 16.8094
      vertex -1.5 10.9895 17.005
      vertex -1.5 10.5092 19.2646
    endloop
  endfacet
  facet normal 1 0 0
    outer loop
      vertex -1.5 10.9895 17.005
      vertex -1.5 5.44106 16.8094
      vertex -1.5 10.9895 14.695
    endloop
  endfacet
  facet normal 1 0 0
    outer loop
      vertex -1.5 4.78479 18.6125
      vertex -1.5 10.5092 19.2646
      vertex -1.5 9.56958 21.375
    endloop
  endfacet
  facet normal 1 -0 0
    outer loop
      vertex -1.5 5.44106 14.8906
      vertex -1.5 10.9895 14.695
      vertex -1.5 5.44106 16.8094
    endloop
  endfacet
  facet normal 1 0 0
    outer loop
      vertex -1.5 4.78479 18.6125
      vertex -1.5 9.56958 21.375
      vertex -1.5 8.21175 23.2439
    endloop
  endfacet
  facet normal 1 0 0
    outer loop
      vertex -1.5 10.9895 14.695
      vertex -1.5 5.44106 14.8906
      vertex -1.5 10.5092 12.4354
    endloop
  endfacet
  facet normal 1 0 0
    outer loop
      vertex -1.5 3.5514 20.0824
      vertex -1.5 8.21175 23.2439
      vertex -1.5 6.49503 24.7896
    endloop
  endfacet
  facet normal 1 -0 0
    outer loop
      vertex -1.5 4.78479 13.0875
      vertex -1.5 10.5092 12.4354
      vertex -1.5 5.44106 14.8906
    endloop
  endfacet
  facet normal 1 0 0
    outer loop
      vertex -1.5 10.5092 12.4354
      vertex -1.5 4.78479 13.0875
      vertex -1.5 9.56958 10.325
    endloop
  endfacet
  facet normal 1 0 0
    outer loop
      vertex -1.5 10.5092 19.2646
      vertex -1.5 4.78479 18.6125
      vertex -1.5 5.44106 16.8094
    endloop
  endfacet
  facet normal 1 0 0
    outer loop
      vertex -1.5 3.5514 20.0824
      vertex -1.5 6.49503 24.7896
      vertex -1.5 4.49444 25.9447
    endloop
  endfacet
  facet normal 1 0 0
    outer loop
      vertex -1.5 8.21175 23.2439
      vertex -1.5 3.5514 20.0824
      vertex -1.5 4.78479 18.6125
    endloop
  endfacet
  facet normal 1 0 0
    outer loop
      vertex -1.5 1.88966 21.0418
      vertex -1.5 4.49444 25.9447
      vertex -1.5 2.29742 26.6585
    endloop
  endfacet
  facet normal 1 0 0
    outer loop
      vertex -1.5 4.49444 25.9447
      vertex -1.5 1.88966 21.0418
      vertex -1.5 3.5514 20.0824
    endloop
  endfacet
  facet normal 1 0 0
    outer loop
      vertex -1.5 0 21.375
      vertex -1.5 2.29742 26.6585
      vertex -1.5 0 26.9
    endloop
  endfacet
  facet normal 1 0 0
    outer loop
      vertex -1.5 2.29742 26.6585
      vertex -1.5 0 21.375
      vertex -1.5 1.88966 21.0418
    endloop
  endfacet
  facet normal 1 -0 0
    outer loop
      vertex -1.5 -2.29742 26.6585
      vertex -1.5 0 21.375
      vertex -1.5 0 26.9
    endloop
  endfacet
  facet normal 1 0 0
    outer loop
      vertex -1.5 0 21.375
      vertex -1.5 -2.29742 26.6585
      vertex -1.5 -1.88966 21.0418
    endloop
  endfacet
  facet normal 1 -0 0
    outer loop
      vertex -1.5 -4.49444 25.9447
      vertex -1.5 -1.88966 21.0418
      vertex -1.5 -2.29742 26.6585
    endloop
  endfacet
  facet normal 1 0 0
    outer loop
      vertex -1.5 -1.88966 21.0418
      vertex -1.5 -4.49444 25.9447
      vertex -1.5 -3.5514 20.0824
    endloop
  endfacet
  facet normal 1 -0 0
    outer loop
      vertex -1.5 -6.49503 24.7896
      vertex -1.5 -3.5514 20.0824
      vertex -1.5 -4.49444 25.9447
    endloop
  endfacet
  facet normal 1 -0 0
    outer loop
      vertex -1.5 -8.21175 23.2439
      vertex -1.5 -3.5514 20.0824
      vertex -1.5 -6.49503 24.7896
    endloop
  endfacet
  facet normal 1 -0 0
    outer loop
      vertex -1.5 -9.56958 21.375
      vertex -1.5 -4.78479 18.6125
      vertex -1.5 -8.21175 23.2439
    endloop
  endfacet
  facet normal 1 0 0
    outer loop
      vertex -1.5 -3.5514 20.0824
      vertex -1.5 -8.21175 23.2439
      vertex -1.5 -4.78479 18.6125
    endloop
  endfacet
  facet normal 1 0 0
    outer loop
      vertex -1.5 9.56958 10.325
      vertex -1.5 4.78479 13.0875
      vertex -1.5 8.21175 8.45611
    endloop
  endfacet
  facet normal 1 -0 0
    outer loop
      vertex -1.5 3.5514 11.6176
      vertex -1.5 8.21175 8.45611
      vertex -1.5 4.78479 13.0875
    endloop
  endfacet
  facet normal 1 0 0
    outer loop
      vertex -1.5 8.21175 8.45611
      vertex -1.5 3.5514 11.6176
      vertex -1.5 6.49503 6.91036
    endloop
  endfacet
  facet normal 1 0 0
    outer loop
      vertex -1.5 6.49503 6.91036
      vertex -1.5 3.5514 11.6176
      vertex -1.5 4.49444 5.75532
    endloop
  endfacet
  facet normal 1 -0 0
    outer loop
      vertex -1.5 1.88966 10.6582
      vertex -1.5 4.49444 5.75532
      vertex -1.5 3.5514 11.6176
    endloop
  endfacet
  facet normal 1 0 0
    outer loop
      vertex -1.5 4.49444 5.75532
      vertex -1.5 1.88966 10.6582
      vertex -1.5 2.29742 5.04147
    endloop
  endfacet
  facet normal 1 -0 0
    outer loop
      vertex -1.5 0 10.325
      vertex -1.5 2.29742 5.04147
      vertex -1.5 1.88966 10.6582
    endloop
  endfacet
  facet normal 1 0 0
    outer loop
      vertex -1.5 0 10.325
      vertex -1.5 0 4.8
      vertex -1.5 2.29742 5.04147
    endloop
  endfacet
  facet normal 1 0 0
    outer loop
      vertex -1.5 -2.29742 5.04147
      vertex -1.5 0 10.325
      vertex -1.5 -1.88966 10.6582
    endloop
  endfacet
  facet normal 1 0 0
    outer loop
      vertex -1.5 0 10.325
      vertex -1.5 -2.29742 5.04147
      vertex -1.5 0 4.8
    endloop
  endfacet
  facet normal 1 0 0
    outer loop
      vertex -1.5 -4.49444 5.75532
      vertex -1.5 -1.88966 10.6582
      vertex -1.5 -3.5514 11.6176
    endloop
  endfacet
  facet normal 1 0 0
    outer loop
      vertex -1.5 -1.88966 10.6582
      vertex -1.5 -4.49444 5.75532
      vertex -1.5 -2.29742 5.04147
    endloop
  endfacet
  facet normal 1 0 0
    outer loop
      vertex -1.5 -8.21175 8.45611
      vertex -1.5 -3.5514 11.6176
      vertex -1.5 -4.78479 13.0875
    endloop
  endfacet
  facet normal 1 0 0
    outer loop
      vertex -1.5 -10.5092 12.4354
      vertex -1.5 -4.78479 13.0875
      vertex -1.5 -5.44106 14.8906
    endloop
  endfacet
  facet normal 1 -0 0
    outer loop
      vertex -1.5 -10.5092 19.2646
      vertex -1.5 -4.78479 18.6125
      vertex -1.5 -9.56958 21.375
    endloop
  endfacet
  facet normal 1 0 0
    outer loop
      vertex -1.5 -3.5514 11.6176
      vertex -1.5 -6.49503 6.91036
      vertex -1.5 -4.49444 5.75532
    endloop
  endfacet
  facet normal 1 0 0
    outer loop
      vertex -1.5 -4.78479 18.6125
      vertex -1.5 -10.5092 19.2646
      vertex -1.5 -5.44106 16.8094
    endloop
  endfacet
  facet normal 1 0 0
    outer loop
      vertex -1.5 -3.5514 11.6176
      vertex -1.5 -8.21175 8.45611
      vertex -1.5 -6.49503 6.91036
    endloop
  endfacet
  facet normal 1 -0 0
    outer loop
      vertex -1.5 -10.9895 17.005
      vertex -1.5 -5.44106 16.8094
      vertex -1.5 -10.5092 19.2646
    endloop
  endfacet
  facet normal 1 0 0
    outer loop
      vertex -1.5 -4.78479 13.0875
      vertex -1.5 -9.56958 10.325
      vertex -1.5 -8.21175 8.45611
    endloop
  endfacet
  facet normal 1 0 0
    outer loop
      vertex -1.5 -5.44106 16.8094
      vertex -1.5 -10.9895 17.005
      vertex -1.5 -5.44106 14.8906
    endloop
  endfacet
  facet normal 1 0 0
    outer loop
      vertex -1.5 -4.78479 13.0875
      vertex -1.5 -10.5092 12.4354
      vertex -1.5 -9.56958 10.325
    endloop
  endfacet
  facet normal 1 0 0
    outer loop
      vertex -1.5 -10.9895 14.695
      vertex -1.5 -5.44106 14.8906
      vertex -1.5 -10.9895 17.005
    endloop
  endfacet
  facet normal 1 0 0
    outer loop
      vertex -1.5 -5.44106 14.8906
      vertex -1.5 -10.9895 14.695
      vertex -1.5 -10.5092 12.4354
    endloop
  endfacet
  facet normal 0 -1 0
    outer loop
      vertex -1.5 10.9895 14.695
      vertex 5.5 10.9895 17.005
      vertex -1.5 10.9895 17.005
    endloop
  endfacet
  facet normal 0 -1 -0
    outer loop
      vertex 5.5 10.9895 17.005
      vertex -1.5 10.9895 14.695
      vertex 5.5 10.9895 14.695
    endloop
  endfacet
  facet normal 0 -0.308995 -0.951064
    outer loop
      vertex -1.5 2.29742 26.6585
      vertex 5.5 4.49444 25.9447
      vertex 5.5 2.29742 26.6585
    endloop
  endfacet
  facet normal -0 -0.308995 -0.951064
    outer loop
      vertex 5.5 4.49444 25.9447
      vertex -1.5 2.29742 26.6585
      vertex -1.5 4.49444 25.9447
    endloop
  endfacet
  facet normal -0 0.309015 0.951057
    outer loop
      vertex -1.5 -2.29742 5.04147
      vertex 5.5 -4.49444 5.75532
      vertex 5.5 -2.29742 5.04147
    endloop
  endfacet
  facet normal 0 0.309015 0.951057
    outer loop
      vertex 5.5 -4.49444 5.75532
      vertex -1.5 -2.29742 5.04147
      vertex -1.5 -4.49444 5.75532
    endloop
  endfacet
  facet normal 0 -0.104542 -0.99452
    outer loop
      vertex -1.5 0 26.9
      vertex 5.5 2.29742 26.6585
      vertex 5.5 0 26.9
    endloop
  endfacet
  facet normal -0 -0.104542 -0.99452
    outer loop
      vertex 5.5 2.29742 26.6585
      vertex -1.5 0 26.9
      vertex -1.5 2.29742 26.6585
    endloop
  endfacet
  facet normal 0 -0.913544 0.40674
    outer loop
      vertex -1.5 9.56958 10.325
      vertex 5.5 10.5092 12.4354
      vertex -1.5 10.5092 12.4354
    endloop
  endfacet
  facet normal 0 -0.913544 0.40674
    outer loop
      vertex 5.5 10.5092 12.4354
      vertex -1.5 9.56958 10.325
      vertex 5.5 9.56958 10.325
    endloop
  endfacet
  facet normal 0 0.913544 -0.40674
    outer loop
      vertex 5.5 -10.5092 19.2646
      vertex -1.5 -9.56958 21.375
      vertex 5.5 -9.56958 21.375
    endloop
  endfacet
  facet normal 0 0.913544 -0.40674
    outer loop
      vertex -1.5 -9.56958 21.375
      vertex 5.5 -10.5092 19.2646
      vertex -1.5 -10.5092 19.2646
    endloop
  endfacet
  facet normal 0 -0.500019 -0.866014
    outer loop
      vertex -1.5 4.49444 25.9447
      vertex 5.5 6.49503 24.7896
      vertex 5.5 4.49444 25.9447
    endloop
  endfacet
  facet normal -0 -0.500019 -0.866014
    outer loop
      vertex 5.5 6.49503 24.7896
      vertex -1.5 4.49444 25.9447
      vertex -1.5 6.49503 24.7896
    endloop
  endfacet
  facet normal 0 0.809017 0.587786
    outer loop
      vertex 5.5 -8.21175 8.45611
      vertex -1.5 -9.56958 10.325
      vertex 5.5 -9.56958 10.325
    endloop
  endfacet
  facet normal 0 0.809017 0.587786
    outer loop
      vertex -1.5 -9.56958 10.325
      vertex 5.5 -8.21175 8.45611
      vertex -1.5 -8.21175 8.45611
    endloop
  endfacet
  facet normal 0 0.809018 -0.587784
    outer loop
      vertex 5.5 -9.56958 21.375
      vertex -1.5 -8.21175 23.2439
      vertex 5.5 -8.21175 23.2439
    endloop
  endfacet
  facet normal 0 0.809018 -0.587784
    outer loop
      vertex -1.5 -8.21175 23.2439
      vertex 5.5 -9.56958 21.375
      vertex -1.5 -9.56958 21.375
    endloop
  endfacet
  facet normal 0 1 -0
    outer loop
      vertex 5.5 -10.9895 14.695
      vertex -1.5 -10.9895 17.005
      vertex 5.5 -10.9895 17.005
    endloop
  endfacet
  facet normal 0 1 0
    outer loop
      vertex -1.5 -10.9895 17.005
      vertex 5.5 -10.9895 14.695
      vertex -1.5 -10.9895 14.695
    endloop
  endfacet
  facet normal 0 -0.978147 0.207915
    outer loop
      vertex -1.5 10.5092 12.4354
      vertex 5.5 10.9895 14.695
      vertex -1.5 10.9895 14.695
    endloop
  endfacet
  facet normal 0 -0.978147 0.207915
    outer loop
      vertex 5.5 10.9895 14.695
      vertex -1.5 10.5092 12.4354
      vertex 5.5 10.5092 12.4354
    endloop
  endfacet
  facet normal 0 0.308995 -0.951064
    outer loop
      vertex -1.5 -4.49444 25.9447
      vertex 5.5 -2.29742 26.6585
      vertex 5.5 -4.49444 25.9447
    endloop
  endfacet
  facet normal 0 0.308995 -0.951064
    outer loop
      vertex 5.5 -2.29742 26.6585
      vertex -1.5 -4.49444 25.9447
      vertex -1.5 -2.29742 26.6585
    endloop
  endfacet
  facet normal 0 0.500019 -0.866014
    outer loop
      vertex -1.5 -6.49503 24.7896
      vertex 5.5 -4.49444 25.9447
      vertex 5.5 -6.49503 24.7896
    endloop
  endfacet
  facet normal 0 0.500019 -0.866014
    outer loop
      vertex 5.5 -4.49444 25.9447
      vertex -1.5 -6.49503 24.7896
      vertex -1.5 -4.49444 25.9447
    endloop
  endfacet
  facet normal 1 0 0
    outer loop
      vertex 5.5 13.05 27.9
      vertex 5.5 10.9895 17.005
      vertex 5.5 13.05 3.795
    endloop
  endfacet
  facet normal 1 0 0
    outer loop
      vertex 5.5 13.05 27.9
      vertex 5.5 10.5092 19.2646
      vertex 5.5 10.9895 17.005
    endloop
  endfacet
  facet normal 1 0 0
    outer loop
      vertex 5.5 13.05 27.9
      vertex 5.5 9.56958 21.375
      vertex 5.5 10.5092 19.2646
    endloop
  endfacet
  facet normal 1 0 0
    outer loop
      vertex 5.5 13.05 27.9
      vertex 5.5 8.21175 23.2439
      vertex 5.5 9.56958 21.375
    endloop
  endfacet
  facet normal 1 0 0
    outer loop
      vertex 5.5 13.05 27.9
      vertex 5.5 6.49503 24.7896
      vertex 5.5 8.21175 23.2439
    endloop
  endfacet
  facet normal 1 0 0
    outer loop
      vertex 5.5 13.05 27.9
      vertex 5.5 4.49444 25.9447
      vertex 5.5 6.49503 24.7896
    endloop
  endfacet
  facet normal 1 0 0
    outer loop
      vertex 5.5 13.05 27.9
      vertex 5.5 2.29742 26.6585
      vertex 5.5 4.49444 25.9447
    endloop
  endfacet
  facet normal 1 0 0
    outer loop
      vertex 5.5 13.05 27.9
      vertex 5.5 0 26.9
      vertex 5.5 2.29742 26.6585
    endloop
  endfacet
  facet normal 1 0 0
    outer loop
      vertex 5.5 -10.9895 17.005
      vertex 5.5 -13.05 27.9
      vertex 5.5 -10.9895 14.695
    endloop
  endfacet
  facet normal 1 0 0
    outer loop
      vertex 5.5 -10.5092 19.2646
      vertex 5.5 -13.05 27.9
      vertex 5.5 -10.9895 17.005
    endloop
  endfacet
  facet normal 1 0 0
    outer loop
      vertex 5.5 -9.56958 21.375
      vertex 5.5 -13.05 27.9
      vertex 5.5 -10.5092 19.2646
    endloop
  endfacet
  facet normal 1 0 0
    outer loop
      vertex 5.5 -8.21175 23.2439
      vertex 5.5 -13.05 27.9
      vertex 5.5 -9.56958 21.375
    endloop
  endfacet
  facet normal 1 0 0
    outer loop
      vertex 5.5 -6.49503 24.7896
      vertex 5.5 -13.05 27.9
      vertex 5.5 -8.21175 23.2439
    endloop
  endfacet
  facet normal 1 0 0
    outer loop
      vertex 5.5 -4.49444 25.9447
      vertex 5.5 -13.05 27.9
      vertex 5.5 -6.49503 24.7896
    endloop
  endfacet
  facet normal 1 0 0
    outer loop
      vertex 5.5 -2.29742 26.6585
      vertex 5.5 -13.05 27.9
      vertex 5.5 -4.49444 25.9447
    endloop
  endfacet
  facet normal 1 0 0
    outer loop
      vertex 5.5 0 26.9
      vertex 5.5 -13.05 27.9
      vertex 5.5 -2.29742 26.6585
    endloop
  endfacet
  facet normal 1 -0 0
    outer loop
      vertex 5.5 -13.05 27.9
      vertex 5.5 0 26.9
      vertex 5.5 13.05 27.9
    endloop
  endfacet
  facet normal 1 -0 0
    outer loop
      vertex 5.5 10.9895 14.695
      vertex 5.5 13.05 3.795
      vertex 5.5 10.9895 17.005
    endloop
  endfacet
  facet normal 1 -0 0
    outer loop
      vertex 5.5 10.5092 12.4354
      vertex 5.5 13.05 3.795
      vertex 5.5 10.9895 14.695
    endloop
  endfacet
  facet normal 1 -0 0
    outer loop
      vertex 5.5 9.56958 10.325
      vertex 5.5 13.05 3.795
      vertex 5.5 10.5092 12.4354
    endloop
  endfacet
  facet normal 1 -0 0
    outer loop
      vertex 5.5 8.21175 8.45611
      vertex 5.5 13.05 3.795
      vertex 5.5 9.56958 10.325
    endloop
  endfacet
  facet normal 1 -0 0
    outer loop
      vertex 5.5 6.49503 6.91036
      vertex 5.5 13.05 3.795
      vertex 5.5 8.21175 8.45611
    endloop
  endfacet
  facet normal 1 -0 0
    outer loop
      vertex 5.5 4.49444 5.75532
      vertex 5.5 13.05 3.795
      vertex 5.5 6.49503 6.91036
    endloop
  endfacet
  facet normal 1 -0 0
    outer loop
      vertex 5.5 2.29742 5.04147
      vertex 5.5 13.05 3.795
      vertex 5.5 4.49444 5.75532
    endloop
  endfacet
  facet normal 1 -0 0
    outer loop
      vertex 5.5 0 4.8
      vertex 5.5 13.05 3.795
      vertex 5.5 2.29742 5.04147
    endloop
  endfacet
  facet normal 1 0 0
    outer loop
      vertex 5.5 0 4.8
      vertex 5.5 -13.05 3.795
      vertex 5.5 13.05 3.795
    endloop
  endfacet
  facet normal 1 0 0
    outer loop
      vertex 5.5 -2.29742 5.04147
      vertex 5.5 -13.05 3.795
      vertex 5.5 0 4.8
    endloop
  endfacet
  facet normal 1 0 0
    outer loop
      vertex 5.5 -4.49444 5.75532
      vertex 5.5 -13.05 3.795
      vertex 5.5 -2.29742 5.04147
    endloop
  endfacet
  facet normal 1 0 0
    outer loop
      vertex 5.5 -6.49503 6.91036
      vertex 5.5 -13.05 3.795
      vertex 5.5 -4.49444 5.75532
    endloop
  endfacet
  facet normal 1 0 0
    outer loop
      vertex 5.5 -8.21175 8.45611
      vertex 5.5 -13.05 3.795
      vertex 5.5 -6.49503 6.91036
    endloop
  endfacet
  facet normal 1 0 0
    outer loop
      vertex 5.5 -9.56958 10.325
      vertex 5.5 -13.05 3.795
      vertex 5.5 -8.21175 8.45611
    endloop
  endfacet
  facet normal 1 0 0
    outer loop
      vertex 5.5 -10.5092 12.4354
      vertex 5.5 -13.05 3.795
      vertex 5.5 -9.56958 10.325
    endloop
  endfacet
  facet normal 1 0 0
    outer loop
      vertex 5.5 -10.9895 14.695
      vertex 5.5 -13.05 3.795
      vertex 5.5 -10.5092 12.4354
    endloop
  endfacet
  facet normal 1 0 0
    outer loop
      vertex 5.5 -13.05 3.795
      vertex 5.5 -10.9895 14.695
      vertex 5.5 -13.05 27.9
    endloop
  endfacet
  facet normal 0 0.978147 -0.207915
    outer loop
      vertex 5.5 -10.9895 17.005
      vertex -1.5 -10.5092 19.2646
      vertex 5.5 -10.5092 19.2646
    endloop
  endfacet
  facet normal 0 0.978147 -0.207915
    outer loop
      vertex -1.5 -10.5092 19.2646
      vertex 5.5 -10.9895 17.005
      vertex -1.5 -10.9895 17.005
    endloop
  endfacet
  facet normal 0 0.939693 0.342018
    outer loop
      vertex -1.5 -4.78479 13.0875
      vertex -5.5 -5.44106 14.8906
      vertex -1.5 -5.44106 14.8906
    endloop
  endfacet
  facet normal 0 0.939693 0.342018
    outer loop
      vertex -5.5 -5.44106 14.8906
      vertex -1.5 -4.78479 13.0875
      vertex -5.5 -4.78479 13.0875
    endloop
  endfacet
  facet normal 0 -0.173649 0.984808
    outer loop
      vertex -5.5 1.88966 10.6582
      vertex -1.5 0 10.325
      vertex -1.5 1.88966 10.6582
    endloop
  endfacet
  facet normal 0 -0.173649 0.984808
    outer loop
      vertex -1.5 0 10.325
      vertex -5.5 1.88966 10.6582
      vertex -5.5 0 10.325
    endloop
  endfacet
  facet normal 0 0.173649 -0.984808
    outer loop
      vertex -5.5 -1.88966 21.0418
      vertex -1.5 0 21.375
      vertex -1.5 -1.88966 21.0418
    endloop
  endfacet
  facet normal 0 0.173649 -0.984808
    outer loop
      vertex -1.5 0 21.375
      vertex -5.5 -1.88966 21.0418
      vertex -5.5 0 21.375
    endloop
  endfacet
  facet normal 0 0.766045 0.642787
    outer loop
      vertex -1.5 -3.5514 11.6176
      vertex -5.5 -4.78479 13.0875
      vertex -1.5 -4.78479 13.0875
    endloop
  endfacet
  facet normal 0 0.766045 0.642787
    outer loop
      vertex -5.5 -4.78479 13.0875
      vertex -1.5 -3.5514 11.6176
      vertex -5.5 -3.5514 11.6176
    endloop
  endfacet
  facet normal 0 -0.499998 -0.866027
    outer loop
      vertex -5.5 1.88966 21.0418
      vertex -1.5 3.5514 20.0824
      vertex -1.5 1.88966 21.0418
    endloop
  endfacet
  facet normal -0 -0.499998 -0.866027
    outer loop
      vertex -1.5 3.5514 20.0824
      vertex -5.5 1.88966 21.0418
      vertex -5.5 3.5514 20.0824
    endloop
  endfacet
  facet normal 0 -0.499998 0.866027
    outer loop
      vertex -5.5 3.5514 11.6176
      vertex -1.5 1.88966 10.6582
      vertex -1.5 3.5514 11.6176
    endloop
  endfacet
  facet normal 0 -0.499998 0.866027
    outer loop
      vertex -1.5 1.88966 10.6582
      vertex -5.5 3.5514 11.6176
      vertex -5.5 1.88966 10.6582
    endloop
  endfacet
  facet normal 0 -0.766045 0.642787
    outer loop
      vertex -5.5 3.5514 11.6176
      vertex -1.5 4.78479 13.0875
      vertex -5.5 4.78479 13.0875
    endloop
  endfacet
  facet normal 0 -0.766045 0.642787
    outer loop
      vertex -1.5 4.78479 13.0875
      vertex -5.5 3.5514 11.6176
      vertex -1.5 3.5514 11.6176
    endloop
  endfacet
  facet normal 0 0.939693 -0.342018
    outer loop
      vertex -1.5 -5.44106 16.8094
      vertex -5.5 -4.78479 18.6125
      vertex -1.5 -4.78479 18.6125
    endloop
  endfacet
  facet normal 0 0.939693 -0.342018
    outer loop
      vertex -5.5 -4.78479 18.6125
      vertex -1.5 -5.44106 16.8094
      vertex -5.5 -5.44106 16.8094
    endloop
  endfacet
  facet normal 0 1 -0
    outer loop
      vertex -1.5 -5.44106 14.8906
      vertex -5.5 -5.44106 16.8094
      vertex -1.5 -5.44106 16.8094
    endloop
  endfacet
  facet normal 0 1 0
    outer loop
      vertex -5.5 -5.44106 16.8094
      vertex -1.5 -5.44106 14.8906
      vertex -5.5 -5.44106 14.8906
    endloop
  endfacet
  facet normal 0 0.766045 -0.642787
    outer loop
      vertex -1.5 -4.78479 18.6125
      vertex -5.5 -3.5514 20.0824
      vertex -1.5 -3.5514 20.0824
    endloop
  endfacet
  facet normal 0 0.766045 -0.642787
    outer loop
      vertex -5.5 -3.5514 20.0824
      vertex -1.5 -4.78479 18.6125
      vertex -5.5 -4.78479 18.6125
    endloop
  endfacet
  facet normal 0 -0.939693 0.342018
    outer loop
      vertex -5.5 4.78479 13.0875
      vertex -1.5 5.44106 14.8906
      vertex -5.5 5.44106 14.8906
    endloop
  endfacet
  facet normal 0 -0.939693 0.342018
    outer loop
      vertex -1.5 5.44106 14.8906
      vertex -5.5 4.78479 13.0875
      vertex -1.5 4.78479 13.0875
    endloop
  endfacet
  facet normal 0 -0.939693 -0.342018
    outer loop
      vertex -5.5 5.44106 16.8094
      vertex -1.5 4.78479 18.6125
      vertex -5.5 4.78479 18.6125
    endloop
  endfacet
  facet normal 0 -0.939693 -0.342018
    outer loop
      vertex -1.5 4.78479 18.6125
      vertex -5.5 5.44106 16.8094
      vertex -1.5 5.44106 16.8094
    endloop
  endfacet
  facet normal 0 -1 0
    outer loop
      vertex -5.5 5.44106 14.8906
      vertex -1.5 5.44106 16.8094
      vertex -5.5 5.44106 16.8094
    endloop
  endfacet
  facet normal 0 -1 -0
    outer loop
      vertex -1.5 5.44106 16.8094
      vertex -5.5 5.44106 14.8906
      vertex -1.5 5.44106 14.8906
    endloop
  endfacet
  facet normal 0 -0.766045 -0.642787
    outer loop
      vertex -5.5 4.78479 18.6125
      vertex -1.5 3.5514 20.0824
      vertex -5.5 3.5514 20.0824
    endloop
  endfacet
  facet normal 0 -0.766045 -0.642787
    outer loop
      vertex -1.5 3.5514 20.0824
      vertex -5.5 4.78479 18.6125
      vertex -1.5 4.78479 18.6125
    endloop
  endfacet
  facet normal 0 0.499998 -0.866027
    outer loop
      vertex -5.5 -3.5514 20.0824
      vertex -1.5 -1.88966 21.0418
      vertex -1.5 -3.5514 20.0824
    endloop
  endfacet
  facet normal 0 0.499998 -0.866027
    outer loop
      vertex -1.5 -1.88966 21.0418
      vertex -5.5 -3.5514 20.0824
      vertex -5.5 -1.88966 21.0418
    endloop
  endfacet
  facet normal 0 -0.173649 -0.984808
    outer loop
      vertex -5.5 0 21.375
      vertex -1.5 1.88966 21.0418
      vertex -1.5 0 21.375
    endloop
  endfacet
  facet normal -0 -0.173649 -0.984808
    outer loop
      vertex -1.5 1.88966 21.0418
      vertex -5.5 0 21.375
      vertex -5.5 1.88966 21.0418
    endloop
  endfacet
  facet normal -0 0.499998 0.866027
    outer loop
      vertex -5.5 -1.88966 10.6582
      vertex -1.5 -3.5514 11.6176
      vertex -1.5 -1.88966 10.6582
    endloop
  endfacet
  facet normal 0 0.499998 0.866027
    outer loop
      vertex -1.5 -3.5514 11.6176
      vertex -5.5 -1.88966 10.6582
      vertex -5.5 -3.5514 11.6176
    endloop
  endfacet
  facet normal -0 0.173649 0.984808
    outer loop
      vertex -5.5 0 10.325
      vertex -1.5 -1.88966 10.6582
      vertex -1.5 0 10.325
    endloop
  endfacet
  facet normal 0 0.173649 0.984808
    outer loop
      vertex -1.5 -1.88966 10.6582
      vertex -5.5 0 10.325
      vertex -5.5 -1.88966 10.6582
    endloop
  endfacet
  facet normal -0 0 1
    outer loop
      vertex -5.5 13.05 27.9
      vertex 5.5 -13.05 27.9
      vertex 5.5 13.05 27.9
    endloop
  endfacet
  facet normal 0 0 1
    outer loop
      vertex 5.5 -13.05 27.9
      vertex -5.5 13.05 27.9
      vertex -5.5 -13.05 27.9
    endloop
  endfacet
  facet normal -1 0 0
    outer loop
      vertex -5.5 13.05 3.795
      vertex -5.5 5.44106 14.8906
      vertex -5.5 13.05 27.9
    endloop
  endfacet
  facet normal -1 0 0
    outer loop
      vertex -5.5 13.05 3.795
      vertex -5.5 4.78479 13.0875
      vertex -5.5 5.44106 14.8906
    endloop
  endfacet
  facet normal -1 0 0
    outer loop
      vertex -5.5 13.05 3.795
      vertex -5.5 3.5514 11.6176
      vertex -5.5 4.78479 13.0875
    endloop
  endfacet
  facet normal -1 0 0
    outer loop
      vertex -5.5 13.05 3.795
      vertex -5.5 1.88966 10.6582
      vertex -5.5 3.5514 11.6176
    endloop
  endfacet
  facet normal -1 0 0
    outer loop
      vertex -5.5 13.05 3.795
      vertex -5.5 0 10.325
      vertex -5.5 1.88966 10.6582
    endloop
  endfacet
  facet normal -1 0 0
    outer loop
      vertex -5.5 -13.05 3.795
      vertex -5.5 0 10.325
      vertex -5.5 13.05 3.795
    endloop
  endfacet
  facet normal -1 -0 0
    outer loop
      vertex -5.5 -5.44106 14.8906
      vertex -5.5 -13.05 3.795
      vertex -5.5 -5.44106 16.8094
    endloop
  endfacet
  facet normal -1 -0 0
    outer loop
      vertex -5.5 -4.78479 13.0875
      vertex -5.5 -13.05 3.795
      vertex -5.5 -5.44106 14.8906
    endloop
  endfacet
  facet normal -1 -0 0
    outer loop
      vertex -5.5 -3.5514 11.6176
      vertex -5.5 -13.05 3.795
      vertex -5.5 -4.78479 13.0875
    endloop
  endfacet
  facet normal -1 -0 0
    outer loop
      vertex -5.5 -1.88966 10.6582
      vertex -5.5 -13.05 3.795
      vertex -5.5 -3.5514 11.6176
    endloop
  endfacet
  facet normal -1 -0 0
    outer loop
      vertex -5.5 0 10.325
      vertex -5.5 -13.05 3.795
      vertex -5.5 -1.88966 10.6582
    endloop
  endfacet
  facet normal -1 0 0
    outer loop
      vertex -5.5 5.44106 16.8094
      vertex -5.5 13.05 27.9
      vertex -5.5 5.44106 14.8906
    endloop
  endfacet
  facet normal -1 0 0
    outer loop
      vertex -5.5 4.78479 18.6125
      vertex -5.5 13.05 27.9
      vertex -5.5 5.44106 16.8094
    endloop
  endfacet
  facet normal -1 0 0
    outer loop
      vertex -5.5 3.5514 20.0824
      vertex -5.5 13.05 27.9
      vertex -5.5 4.78479 18.6125
    endloop
  endfacet
  facet normal -1 0 0
    outer loop
      vertex -5.5 1.88966 21.0418
      vertex -5.5 13.05 27.9
      vertex -5.5 3.5514 20.0824
    endloop
  endfacet
  facet normal -1 0 0
    outer loop
      vertex -5.5 0 21.375
      vertex -5.5 13.05 27.9
      vertex -5.5 1.88966 21.0418
    endloop
  endfacet
  facet normal -1 0 0
    outer loop
      vertex -5.5 -13.05 27.9
      vertex -5.5 0 21.375
      vertex -5.5 -1.88966 21.0418
    endloop
  endfacet
  facet normal -1 0 0
    outer loop
      vertex -5.5 -13.05 27.9
      vertex -5.5 -5.44106 16.8094
      vertex -5.5 -13.05 3.795
    endloop
  endfacet
  facet normal -1 0 0
    outer loop
      vertex -5.5 0 21.375
      vertex -5.5 -13.05 27.9
      vertex -5.5 13.05 27.9
    endloop
  endfacet
  facet normal -1 0 0
    outer loop
      vertex -5.5 -3.5514 20.0824
      vertex -5.5 -13.05 27.9
      vertex -5.5 -1.88966 21.0418
    endloop
  endfacet
  facet normal -1 0 0
    outer loop
      vertex -5.5 -4.78479 18.6125
      vertex -5.5 -13.05 27.9
      vertex -5.5 -3.5514 20.0824
    endloop
  endfacet
  facet normal -1 0 0
    outer loop
      vertex -5.5 -5.44106 16.8094
      vertex -5.5 -13.05 27.9
      vertex -5.5 -4.78479 18.6125
    endloop
  endfacet
  facet normal 0 1 -0
    outer loop
      vertex 5.5 13.05 3.795
      vertex -5.5 13.05 27.9
      vertex 5.5 13.05 27.9
    endloop
  endfacet
  facet normal 0 1 0
    outer loop
      vertex 5.5 13.05 3.795
      vertex -5.5 13.05 3.795
      vertex -5.5 13.05 27.9
    endloop
  endfacet
  facet normal 0 1 -0
    outer loop
      vertex 2 13.05 -0.00499916
      vertex -5.5 13.05 3.795
      vertex 5.5 13.05 3.795
    endloop
  endfacet
  facet normal 0 1 0
    outer loop
      vertex -5.5 13.05 3.795
      vertex 2 13.05 -0.00499916
      vertex -2 13.05 -0.00499916
    endloop
  endfacet
  facet normal 0 -1 0
    outer loop
      vertex -5.5 -13.05 3.795
      vertex 5.5 -13.05 27.9
      vertex -5.5 -13.05 27.9
    endloop
  endfacet
  facet normal 0 -1 0
    outer loop
      vertex -5.5 -13.05 3.795
      vertex 5.5 -13.05 3.795
      vertex 5.5 -13.05 27.9
    endloop
  endfacet
  facet normal 0 -1 0
    outer loop
      vertex -2 -13.05 -0.00499916
      vertex 5.5 -13.05 3.795
      vertex -5.5 -13.05 3.795
    endloop
  endfacet
  facet normal 0 -1 0
    outer loop
      vertex 5.5 -13.05 3.795
      vertex -2 -13.05 -0.00499916
      vertex 2 -13.05 -0.00499916
    endloop
  endfacet
  facet normal 0 0 -1
    outer loop
      vertex -2 -13.05 -0.00499916
      vertex 2 13.05 -0.00499916
      vertex 2 -13.05 -0.00499916
    endloop
  endfacet
  facet normal -0 0 -1
    outer loop
      vertex 2 13.05 -0.00499916
      vertex -2 -13.05 -0.00499916
      vertex -2 13.05 -0.00499916
    endloop
  endfacet
  facet normal 0.735545 0 -0.677476
    outer loop
      vertex 5.5 -13.05 3.795
      vertex 2 13.05 -0.00499916
      vertex 5.5 13.05 3.795
    endloop
  endfacet
  facet normal 0.735545 0 -0.677476
    outer loop
      vertex 2 13.05 -0.00499916
      vertex 5.5 -13.05 3.795
      vertex 2 -13.05 -0.00499916
    endloop
  endfacet
  facet normal -0.735545 0 -0.677476
    outer loop
      vertex -2 -13.05 -0.00499916
      vertex -5.5 13.05 3.795
      vertex -2 13.05 -0.00499916
    endloop
  endfacet
  facet normal -0.735545 -0 -0.677476
    outer loop
      vertex -5.5 13.05 3.795
      vertex -2 -13.05 -0.00499916
      vertex -5.5 -13.05 3.795
    endloop
  endfacet
endsolid OpenSCAD_Model
